{
  "casual": [
    "Shirt",
    "Bomber",
    "Button-Down",
    "Cardigan",
    "Chinos",
    "Coat",
    "Culottes",
    "Cutoffs",
    "Dress",
    "Flannel",
    "Henley",
    "Hoodie",
    "Jeans",
    "Jeggings",
    "Jersey",
    "Joggers",
    "Jumpsuit",
    "Kimono",
    "Leggings",
    "Parka",
    "Poncho",
    "Romper",
    "Shorts",
    "Skirt",
    "Sweater",
    "Sweatpants",
    "Sweatshorts",
    "Tank",
    "T-Shirt",
    "Top",
    "Trunks"
  ],
  "formal": [
    "Blazer",
    "Shirt",
    "Button-Down",
    "Cardigan",
    "Chinos",
    "Coat",
    "Dress",
    "Flannel",
    "Henley",
    "Skirt",
    "Sweater",
    "T-Shirt",
    "Top"
  ]
}
