{
    "lower": [
        "Chinos",
        "Culottes",
        "Cutoffs",
        "Jeans",
        "Jeggings",
        "Joggers",
        "Leggings",
        "Shorts",
        "Skirt",
        "Sweatpants",
        "Sweatshorts",
        "Trunks"
    ],
    "overall": [
        "Dress",
        "Jumpsuit",
        "Kimono",
        "Romper"
    ],
    "upper": [
        "Blazer",
        "Shirt",
        "Bomber",
        "Button-Down",
        "Cardigan",
        "Coat",
        "Flannel",
        "Henley",
        "Hoodie",
        "Jacket",
        "Jersey",
        "Parka",
        "Poncho",
        "Sweater",
        "Tank",
        "T-Shirt",
        "Top"
    ]
}